Inferencia e introducción a los modelos estadísticos con R - 1 Introducción: {dplyr}
…
Más de otros pipes https://r4ds.had.co.nz/pipes.html

1.4 select() y filter()

Este es un recordatorio de que en {dplyr}, se filtran CASOS, es decir, líneas o renglones, y se seleccionan VARIABLES.

Por ejemplo:

tlaxt322%>% 
  dplyr::select(sex, eda) %>% 
  dplyr::filter(eda>11)

# A tibble: 9,205 × 2
   sex          eda
   <dbl+lbl>  <dbl>
 1 1 [Hombre]    34
 2 2 [Mujer]     57
 3 1 [Hombre]    71
 4 1 [Hombre]    67
 5 2 [Mujer]     60
 6 2 [Mujer]     35
 7 1 [Hombre]    39
 8 1 [Hombre]    38
 9 2 [Mujer]     33
10 1 [Hombre]    14
# … with 9,195 more rows
…
